Housing Project
…
## The following object is masked from 'package:dplyr':
## 
##     combine

## rgdal: version: 1.4-8, (SVN revision 845)
##  Geospatial Data Abstraction Library extensions to R successfully loaded
##  Loaded GDAL runtime: GDAL 2.2.3, released 2017/11/20
##  Path to GDAL shared files: C:/Users/Owner/Documents/R/win-library/3.6/sf/gdal
##  GDAL binary built with GEOS: TRUE 
##  Loaded PROJ.4 runtime: Rel. 4.9.3, 15 August 2016, [PJ_VERSION: 493]
##  Path to PROJ.4 shared files: C:/Users/Owner/Documents/R/win-library/3.6/sf/proj
##  Linking to sp version: 1.3-2

## # A tibble: 4,194,300 x 16
## # Groups:   Children.Present [5]
##    State Adjustment.Fact Lot.Size Agriculture.Sal Electricity.Cost
##    <int>            <int>    <int>            <int>            <int>
##  1     1          1061971       NA               NA               NA
##  2     1          1061971        1               NA              350
##  3     1          1061971        1               NA              300
##  4     1          1061971        3                1              220
##  5     1          1061971       NA               NA               60
##  6     1          1061971        1               NA              100
##  7     1          1061971        1               NA              240
##  8     1          1061971        2                1              130
##  9     1          1061971       NA               NA              130
## 10     1          1061971        2                1               80
## #  with 4,194,290 more rows, and 11 more variables: Meal.Included <int>,
## #   Monthly.Rent <int>, Tenure <int>, Property.Value <int>,
## #   No.Of.Vehicles <int>, Year.Property.Built <int>, Family.Income <int>,
## #   Household.Language <int>, Household.Income <int>, Children.Present <int>,
## #   Taxes <int>
…
